

SQL_8935_8905 = 
SELECT  HOUR(timeline_2012.h_inicio)  AS subitem, COUNT(id_evento) as num FROM timeline_2012 WHERE timeline_2012.category_id IN (2,3,4,5,6,7,8,9,10,12,13,14,15,17,18,21,32,33,34,35,36,37,38,49,50,51,52,53,54,55,56,67,68,69,70,71,72,73,74,75,77,79,87,88,89,90,92,115,116,117,118,119,120,121,122,123,124,130,131,132,133,134,135,136,137,138,139,140,141,142,143,144,145,146,147,148,149,150,151,152,153,154,155,156,157,158,159,160,161,162,163,164,165,166,167,169,170,171,172,173,174,175,176,177,178,179,180,181,182,184,185,186,187,193,194,195,196,197,198,199,200,201,202,203,204,205,206,207,208,209,210,211,212,213,214,215,216,217,218,219,220,221,222,223,224,225,226,227,228,229,230,231,232,233,234,235,236,237,239,240,241,242,243,244,245,246,247,248,249,250,251,252,253,254,255,256,257,258,259,260,261,262,263,264,265,266,267,268,269,270,271,272,273,274,275,276,277,278,279,280,281,282,283,284,285,303,304,800,801,802,803,804,805,807,808,809) AND (timeline_2012.latitud <> 0 OR timeline_2012.longitud <> 0) AND (timeline_2012.latitud < 37.934761460935604 AND timeline_2012.longitud < -121.56252851406248) AND (timeline_2012.latitud > 37.445739341846405 AND timeline_2012.longitud > -122.79849042812498) AND timeline_2012.f_inicio = '2013-8-10' AND timeline_2012.scale & 8 = 8 GROUP BY subitem -------------- 0.00003 ---


SQL_8935_8905 = 
SELECT id, start_date, h_inicio, title, imagen, descripcion, cat_id, subitem, rownum
FROM (
  SELECT
	CASE WHEN @si != ( HOUR(timeline_2012.h_inicio) ) THEN @row_num := 1 ELSE @row_num := @row_num + 1 END AS rownum,
	timeline_2012.id_evento as id,
	DATE_FORMAT(
		  timeline_2012.f_inicio,
		  IF (timeline_2012.scale & 8 = 8, '%b %d, %Y',
		    IF (timeline_2012.scale & 16 = 16, '%b %Y', '%Y')
		  )
		) AS start_date,
	TIME_FORMAT(timeline_2012.h_inicio, '%H:%i:%S') as h_inicio,
	timeline_2012.titulo as title,
	timeline_2012.imagen,
	timeline_2012.descripcion,
	timeline_2012.category_id AS cat_id,
	@si := ( HOUR(timeline_2012.h_inicio) ) as subitem
  FROM timeline_2012
  JOIN (SELECT @si := NULL, @row_num := 0) a
   WHERE timeline_2012.category_id IN (2,3,4,5,6,7,8,9,10,12,13,14,15,17,18,21,32,33,34,35,36,37,38,49,50,51,52,53,54,55,56,67,68,69,70,71,72,73,74,75,77,79,87,88,89,90,92,115,116,117,118,119,120,121,122,123,124,130,131,132,133,134,135,136,137,138,139,140,141,142,143,144,145,146,147,148,149,150,151,152,153,154,155,156,157,158,159,160,161,162,163,164,165,166,167,169,170,171,172,173,174,175,176,177,178,179,180,181,182,184,185,186,187,193,194,195,196,197,198,199,200,201,202,203,204,205,206,207,208,209,210,211,212,213,214,215,216,217,218,219,220,221,222,223,224,225,226,227,228,229,230,231,232,233,234,235,236,237,239,240,241,242,243,244,245,246,247,248,249,250,251,252,253,254,255,256,257,258,259,260,261,262,263,264,265,266,267,268,269,270,271,272,273,274,275,276,277,278,279,280,281,282,283,284,285,303,304,800,801,802,803,804,805,807,808,809) AND (timeline_2012.latitud <> 0 OR timeline_2012.longitud <> 0) AND (timeline_2012.latitud < 37.934761460935604 AND timeline_2012.longitud < -121.56252851406248) AND (timeline_2012.latitud > 37.445739341846405 AND timeline_2012.longitud > -122.79849042812498) AND timeline_2012.f_inicio = '2013-8-10' AND timeline_2012.scale & 8 = 8 ORDER BY timeline_2012.h_inicio
) r
WHERE
  rownum <= 4
ORDER BY subitem -------------- 0.00003 ---


SQL_7410_2641 = 
SELECT  HOUR(timeline_2012.h_inicio)  AS subitem, COUNT(id_evento) as num FROM timeline_2012 WHERE timeline_2012.category_id IN (2,3,4,5,6,7,8,9,10,12,13,14,15,17,18,21,32,33,34,35,36,37,38,49,50,51,52,53,54,55,56,67,68,69,70,71,72,73,74,75,77,79,87,88,89,90,92,115,116,117,118,119,120,121,122,123,124,130,131,132,133,134,135,136,137,138,139,140,141,142,143,144,145,146,147,148,149,150,151,152,153,154,155,156,157,158,159,160,161,162,163,164,165,166,167,169,170,171,172,173,174,175,176,177,178,179,180,181,182,184,185,186,187,193,194,195,196,197,198,199,200,201,202,203,204,205,206,207,208,209,210,211,212,213,214,215,216,217,218,219,220,221,222,223,224,225,226,227,228,229,230,231,232,233,234,235,236,237,239,240,241,242,243,244,245,246,247,248,249,250,251,252,253,254,255,256,257,258,259,260,261,262,263,264,265,266,267,268,269,270,271,272,273,274,275,276,277,278,279,280,281,282,283,284,285,303,304,800,801,802,803,804,805,807,808,809) AND (timeline_2012.latitud <> 0 OR timeline_2012.longitud <> 0) AND (timeline_2012.latitud < 37.934761460935604 AND timeline_2012.longitud < -121.56252851406248) AND (timeline_2012.latitud > 37.445739341846405 AND timeline_2012.longitud > -122.79849042812498) AND timeline_2012.f_inicio = '2013-8-11' AND timeline_2012.scale & 8 = 8 GROUP BY subitem -------------- 0.00003 ---


SQL_7410_2641 = 
SELECT id, start_date, h_inicio, title, imagen, descripcion, cat_id, subitem, rownum
FROM (
  SELECT
	CASE WHEN @si != ( HOUR(timeline_2012.h_inicio) ) THEN @row_num := 1 ELSE @row_num := @row_num + 1 END AS rownum,
	timeline_2012.id_evento as id,
	DATE_FORMAT(
		  timeline_2012.f_inicio,
		  IF (timeline_2012.scale & 8 = 8, '%b %d, %Y',
		    IF (timeline_2012.scale & 16 = 16, '%b %Y', '%Y')
		  )
		) AS start_date,
	TIME_FORMAT(timeline_2012.h_inicio, '%H:%i:%S') as h_inicio,
	timeline_2012.titulo as title,
	timeline_2012.imagen,
	timeline_2012.descripcion,
	timeline_2012.category_id AS cat_id,
	@si := ( HOUR(timeline_2012.h_inicio) ) as subitem
  FROM timeline_2012
  JOIN (SELECT @si := NULL, @row_num := 0) a
   WHERE timeline_2012.category_id IN (2,3,4,5,6,7,8,9,10,12,13,14,15,17,18,21,32,33,34,35,36,37,38,49,50,51,52,53,54,55,56,67,68,69,70,71,72,73,74,75,77,79,87,88,89,90,92,115,116,117,118,119,120,121,122,123,124,130,131,132,133,134,135,136,137,138,139,140,141,142,143,144,145,146,147,148,149,150,151,152,153,154,155,156,157,158,159,160,161,162,163,164,165,166,167,169,170,171,172,173,174,175,176,177,178,179,180,181,182,184,185,186,187,193,194,195,196,197,198,199,200,201,202,203,204,205,206,207,208,209,210,211,212,213,214,215,216,217,218,219,220,221,222,223,224,225,226,227,228,229,230,231,232,233,234,235,236,237,239,240,241,242,243,244,245,246,247,248,249,250,251,252,253,254,255,256,257,258,259,260,261,262,263,264,265,266,267,268,269,270,271,272,273,274,275,276,277,278,279,280,281,282,283,284,285,303,304,800,801,802,803,804,805,807,808,809) AND (timeline_2012.latitud <> 0 OR timeline_2012.longitud <> 0) AND (timeline_2012.latitud < 37.934761460935604 AND timeline_2012.longitud < -121.56252851406248) AND (timeline_2012.latitud > 37.445739341846405 AND timeline_2012.longitud > -122.79849042812498) AND timeline_2012.f_inicio = '2013-8-11' AND timeline_2012.scale & 8 = 8 ORDER BY timeline_2012.h_inicio
) r
WHERE
  rownum <= 4
ORDER BY subitem -------------- 0.00003 ---


SQL_8159_5435 = 
SELECT
  timeline_2012.id_evento as id
  ,DATE_FORMAT(
		  timeline_2012.f_inicio,
		  IF (timeline_2012.scale & 8 = 8, '%b %d, %Y',
		    IF (timeline_2012.scale & 16 = 16, '%b %Y', '%Y')
		  )
		) AS f_inicio
  ,TIME_FORMAT(timeline_2012.h_inicio, '%H:%i:%S') AS h_inicio
  , timeline_2012.titulo
  , timeline_2012.imagen
  , timeline_2012.latitud
  , timeline_2012.longitud
  , timeline_2012.category_id
FROM
  timeline_2012
  INNER JOIN icons ON (timeline_2012.category_id = icons.id)
  LEFT JOIN users ON (timeline_2012.user_id = users.id)
 WHERE timeline_2012.category_id IN (2,3,4,5,6,7,8,9,10,12,13,14,15,17,18,21,32,33,34,35,36,37,38,49,50,51,52,53,54,55,56,67,68,69,70,71,72,73,74,75,77,79,87,88,89,90,92,115,116,117,118,119,120,121,122,123,124,130,131,132,133,134,135,136,137,138,139,140,141,142,143,144,145,146,147,148,149,150,151,152,153,154,155,156,157,158,159,160,161,162,163,164,165,166,167,169,170,171,172,173,174,175,176,177,178,179,180,181,182,184,185,186,187,193,194,195,196,197,198,199,200,201,202,203,204,205,206,207,208,209,210,211,212,213,214,215,216,217,218,219,220,221,222,223,224,225,226,227,228,229,230,231,232,233,234,235,236,237,239,240,241,242,243,244,245,246,247,248,249,250,251,252,253,254,255,256,257,258,259,260,261,262,263,264,265,266,267,268,269,270,271,272,273,274,275,276,277,278,279,280,281,282,283,284,285,303,304,800,801,802,803,804,805,807,808,809) AND (timeline_2012.latitud <> 0 OR timeline_2012.longitud <> 0) AND (timeline_2012.latitud < 37.934761460935604 AND timeline_2012.longitud < -121.56252851406248) AND (timeline_2012.latitud > 37.445739341846405 AND timeline_2012.longitud > -122.79849042812498) AND (timeline_2012.latitud <> 0 OR timeline_2012.longitud <> 0) AND (timeline_2012.latitud < 37.934761460935604 AND timeline_2012.longitud < -121.56252851406248) AND (timeline_2012.latitud > 37.445739341846405 AND timeline_2012.longitud > -122.79849042812498) AND timeline_2012.f_inicio = '2013-8-11' AND timeline_2012.scale & 8 = 8 -------------- 0.00003 ---


SQL_8159_5435 = 
SELECT FOUND_ROWS(); -------------- 0.00003 ---


SQL_2435_3480 = 
SELECT
  timeline_2012.id_evento as id
  ,DATE_FORMAT(
		  timeline_2012.f_inicio,
		  IF (timeline_2012.scale & 8 = 8, '%b %d, %Y',
		    IF (timeline_2012.scale & 16 = 16, '%b %Y', '%Y')
		  )
		) AS f_inicio
  ,TIME_FORMAT(timeline_2012.h_inicio, '%H:%i:%S') AS h_inicio
  , timeline_2012.titulo
  , timeline_2012.imagen
  , timeline_2012.latitud
  , timeline_2012.longitud
  , timeline_2012.category_id
FROM
  timeline_2012
  INNER JOIN icons ON (timeline_2012.category_id = icons.id)
  LEFT JOIN users ON (timeline_2012.user_id = users.id)
 WHERE timeline_2012.category_id IN (2,3,4,5,6,7,8,9,10,12,13,14,15,17,18,21,32,33,34,35,36,37,38,49,50,51,52,53,54,55,56,67,68,69,70,71,72,73,74,75,77,79,87,88,89,90,92,115,116,117,118,119,120,121,122,123,124,130,131,132,133,134,135,136,137,138,139,140,141,142,143,144,145,146,147,148,149,150,151,152,153,154,155,156,157,158,159,160,161,162,163,164,165,166,167,169,170,171,172,173,174,175,176,177,178,179,180,181,182,184,185,186,187,193,194,195,196,197,198,199,200,201,202,203,204,205,206,207,208,209,210,211,212,213,214,215,216,217,218,219,220,221,222,223,224,225,226,227,228,229,230,231,232,233,234,235,236,237,239,240,241,242,243,244,245,246,247,248,249,250,251,252,253,254,255,256,257,258,259,260,261,262,263,264,265,266,267,268,269,270,271,272,273,274,275,276,277,278,279,280,281,282,283,284,285,303,304,800,801,802,803,804,805,807,808,809) AND (timeline_2012.latitud <> 0 OR timeline_2012.longitud <> 0) AND (timeline_2012.latitud < 37.934761460935604 AND timeline_2012.longitud < -121.35241498867185) AND (timeline_2012.latitud > 37.35300677882906 AND timeline_2012.longitud > -122.79849042812498) AND (timeline_2012.latitud <> 0 OR timeline_2012.longitud <> 0) AND (timeline_2012.latitud < 37.934761460935604 AND timeline_2012.longitud < -121.35241498867185) AND (timeline_2012.latitud > 37.35300677882906 AND timeline_2012.longitud > -122.79849042812498) AND timeline_2012.f_inicio = '2013-8-11' AND timeline_2012.scale & 8 = 8 -------------- 0.00003 ---


SQL_2435_3480 = 
SELECT FOUND_ROWS(); -------------- 0.00003 ---


SQL_8682_6296 = 
SELECT  HOUR(timeline_2012.h_inicio)  AS subitem, COUNT(id_evento) as num FROM timeline_2012 WHERE timeline_2012.category_id IN (2,3,4,5,6,7,8,9,10,12,13,14,15,17,18,21,32,33,34,35,36,37,38,49,50,51,52,53,54,55,56,67,68,69,70,71,72,73,74,75,77,79,87,88,89,90,92,115,116,117,118,119,120,121,122,123,124,130,131,132,133,134,135,136,137,138,139,140,141,142,143,144,145,146,147,148,149,150,151,152,153,154,155,156,157,158,159,160,161,162,163,164,165,166,167,169,170,171,172,173,174,175,176,177,178,179,180,181,182,184,185,186,187,193,194,195,196,197,198,199,200,201,202,203,204,205,206,207,208,209,210,211,212,213,214,215,216,217,218,219,220,221,222,223,224,225,226,227,228,229,230,231,232,233,234,235,236,237,239,240,241,242,243,244,245,246,247,248,249,250,251,252,253,254,255,256,257,258,259,260,261,262,263,264,265,266,267,268,269,270,271,272,273,274,275,276,277,278,279,280,281,282,283,284,285,303,304,800,801,802,803,804,805,807,808,809) AND (timeline_2012.latitud <> 0 OR timeline_2012.longitud <> 0) AND (timeline_2012.latitud < 37.934761460935604 AND timeline_2012.longitud < -121.56252851406248) AND (timeline_2012.latitud > 37.445739341846405 AND timeline_2012.longitud > -122.79849042812498) AND timeline_2012.f_inicio = '2013-8-12' AND timeline_2012.scale & 8 = 8 GROUP BY subitem -------------- 0.00003 ---


SQL_8682_6296 = 
SELECT id, start_date, h_inicio, title, imagen, descripcion, cat_id, subitem, rownum
FROM (
  SELECT
	CASE WHEN @si != ( HOUR(timeline_2012.h_inicio) ) THEN @row_num := 1 ELSE @row_num := @row_num + 1 END AS rownum,
	timeline_2012.id_evento as id,
	DATE_FORMAT(
		  timeline_2012.f_inicio,
		  IF (timeline_2012.scale & 8 = 8, '%b %d, %Y',
		    IF (timeline_2012.scale & 16 = 16, '%b %Y', '%Y')
		  )
		) AS start_date,
	TIME_FORMAT(timeline_2012.h_inicio, '%H:%i:%S') as h_inicio,
	timeline_2012.titulo as title,
	timeline_2012.imagen,
	timeline_2012.descripcion,
	timeline_2012.category_id AS cat_id,
	@si := ( HOUR(timeline_2012.h_inicio) ) as subitem
  FROM timeline_2012
  JOIN (SELECT @si := NULL, @row_num := 0) a
   WHERE timeline_2012.category_id IN (2,3,4,5,6,7,8,9,10,12,13,14,15,17,18,21,32,33,34,35,36,37,38,49,50,51,52,53,54,55,56,67,68,69,70,71,72,73,74,75,77,79,87,88,89,90,92,115,116,117,118,119,120,121,122,123,124,130,131,132,133,134,135,136,137,138,139,140,141,142,143,144,145,146,147,148,149,150,151,152,153,154,155,156,157,158,159,160,161,162,163,164,165,166,167,169,170,171,172,173,174,175,176,177,178,179,180,181,182,184,185,186,187,193,194,195,196,197,198,199,200,201,202,203,204,205,206,207,208,209,210,211,212,213,214,215,216,217,218,219,220,221,222,223,224,225,226,227,228,229,230,231,232,233,234,235,236,237,239,240,241,242,243,244,245,246,247,248,249,250,251,252,253,254,255,256,257,258,259,260,261,262,263,264,265,266,267,268,269,270,271,272,273,274,275,276,277,278,279,280,281,282,283,284,285,303,304,800,801,802,803,804,805,807,808,809) AND (timeline_2012.latitud <> 0 OR timeline_2012.longitud <> 0) AND (timeline_2012.latitud < 37.934761460935604 AND timeline_2012.longitud < -121.56252851406248) AND (timeline_2012.latitud > 37.445739341846405 AND timeline_2012.longitud > -122.79849042812498) AND timeline_2012.f_inicio = '2013-8-12' AND timeline_2012.scale & 8 = 8 ORDER BY timeline_2012.h_inicio
) r
WHERE
  rownum <= 4
ORDER BY subitem -------------- 0.00004 ---
